<?xml version="1.0" encoding="UTF-8"?>
<svg width="14px" height="16px" viewBox="0 0 14 16" version="1.1" xmlns="http://www.w3.org/2000/svg" xmlns:xlink="http://www.w3.org/1999/xlink">
    <title>icon</title>
    <g id="Wireframes" stroke="none" stroke-width="1" fill="none" fill-rule="evenodd">
        <g id="1.2.Show" transform="translate(-767.000000, -1027.000000)" fill="#FFFFFF" fill-rule="nonzero">
            <g id="Details" transform="translate(0.000000, 580.000000)">
                <g id="Staring" transform="translate(745.000000, 100.000000)">
                    <g id="Table" transform="translate(0.000000, 75.000000)">
                        <g id="Genres" transform="translate(0.000000, 240.000000)">
                            <g id="Pic" transform="translate(0.000000, 11.000000)">
                                <g id="icon" transform="translate(22.000000, 21.000000)">
                                    <path d="M7,9 L7,9 C4.8,9 3,7.2 3,5 L3,4 C3,1.8 4.8,0 7,0 L7,0 C9.2,0 11,1.8 11,4 L11,5 C11,7.2 9.2,9 7,9 Z" id="Shape"></path>
                                    <path d="M9,11 L5,11 C2.2,11 0,13.2 0,16 L0,16 L14,16 L14,16 C14,13.2 11.8,11 9,11 Z" id="Shape"></path>
                                </g>
                            </g>
                        </g>
                    </g>
                </g>
            </g>
        </g>
    </g>
</svg>